{
  "nom": "Terre entière",
  "largeur":1024,
  "hauteur":512,
  "image":"../pics/maps/MAP_world.png",
  "playable_nation":
      ["NATION_USA",
      "NATION_USSR",
      "NATION_China",
        "NATION_France",
        "NATION_GB",
        "NATION_Japan"
      ],
  "link":{
      "CITY_Washington_D_C":["CITY_Nuuk","CITY_Paris","CITY_Brazila"],
      "CITY_Moskow":["CITY_Paris","CITY_Pekin"],
      "CITY_Paris":["CITY_Kinshasa"],
      "CITY_Taiwan":[],
      "CITY_Brazila":["CITY_Kinshasa"],
      "CITY_Pretoria":["CITY_Brazila","CITY_Canberra"],
      "CITY_Nuuk":["CITY_Paris"],
      "CITY_Canberra":["CITY_Taiwan"],
      "CITY_Pekin":["CITY_Taiwan"],
      "CITY_Bagdad":["CITY_Delhi", "CITY_Moskow"],
      "CITY_Delhi":["CITY_Pekin","CITY_Canberra"],
      "CITY_Kinshasa":["CITY_Pretoria"]
  },

  "cities":{
      "CITY_Washington_D_C":
                  {
                    "localisation":[264, 203],
                    "owner":"NATION_USA",
                    "name": "Washington DC"
                  },
      "CITY_Moskow":
                  {"localisation":[581, 173],
                  "owner":"NATION_USSR",
                    "name": "Moscou"
                  },
      "CITY_Paris":
                  {"localisation":[470, 204],
                  "owner":"NATION_France",
                    "name": "Paris"
                  },
      "CITY_Brazila":
                  {"localisation":[332, 346],
                  "owner":"NATION_Neutral",
                    "name": "Brasilia"
                  },
      "CITY_Pretoria":
                  {"localisation":[527, 385],
                  "owner":"NATION_Neutral",
                    "name": "Pretoria"
                  },
      "CITY_Nuuk":
                  {"localisation":[339, 143],
                  "owner":"NATION_Neutral",
                    "name": "Nuuk"
                  },
      "CITY_Canberra":
                  {"localisation":[886, 411],
                  "owner":"NATION_Neutral",
                    "name": "Canberra"
                  },
      "CITY_Pekin":
                  {"localisation":[782, 207],
                  "owner":"NATION_China",
                    "name": "Pekin"
                  },
      "CITY_Taiwan":
                  {"localisation":[820, 252],
                  "owner":"NATION_Neutral",
                    "name": "Taiwan"
                  },
      "CITY_Bagdad":
                  {"localisation":[584, 239],
                  "owner":"NATION_Neutral",
                    "name": "Bagdad"
                  },
      "CITY_Delhi":
                  {"localisation":[695, 239],
                  "owner":"NATION_Neutral",
                    "name": "New Delhi"
                  },
      "CITY_Kinshasa":
                  {"localisation":[505, 325],
                  "owner":"NATION_Neutral",
                    "name": "Kinshasa"
                  }
  }
}

