{
  "UNIT_infanterie": {
    "name": "infanterie",
    "damage": 10,
    "max_damage": 0,
    "pv": 50,
    "speed": 5,
    "rest_time": 1,
    "energy": 100,
    "max_energy": 0,
    "cost-gold": 10,
    "cost-population": 1,
    "cost-food": 1,
    "construction_time": 5,
    "icon": "ICON_infanterie.png",
    "level": 1,
    "size": 1,
    "type": {
      "milieu": "ground",
      "attack_ground": 1,
      "attack_sky": 0
    },
    "sprite": "SPRITE_marine-fr.png",
    "tag": "",
    "x": 0,
    "y": 0
  },
  "UNIT_tank": {
    "name": "tank",
    "damage": 200,
    "max_damage": 0,
    "pv": 1000,
    "max_pv": 0,
    "speed": 2,
    "rest_time": 1,
    "energy": 200,
    "max_energy": 0,
    "cost-gold": 200,
    "cost-population": 5,
    "cost-food": 10,
    "construction_time": 120,
    "icon": "ICON_tank.png",
    "level": 1,
    "size": 20,
    "type": {
      "milieu": "ground",
      "attack_ground": 1,
      "attack_sky": 0
    },
    "sprite": "SPRITE_sol-us.png",
    "tag": "",
    "x": 0,
    "y": 0
  },
  "UNIT_mortier": {
    "name": "mortier",
    "damage": 100,
    "max_damage": 0,
    "pv": 200,
    "max_pv": 0,
    "speed": 10,
    "rest_time": 1,
    "energy": 200,
    "max_energy": 0,
    "cost-gold": 50,
    "cost-population": 5,
    "cost-food": 10,
    "construction_time": 60,
    "icon": "ICON_mortier.png",
    "level": 1,
    "size": 5,
    "type": {
      "milieu": "ground",
      "attack_ground": 1,
      "attack_sky": 0
    },
    "sprite": "SPRITE_marine-fr.png",
    "tag": "",
    "x": 0,
    "y": 0
  },
  "UNIT_transport": {
    "name": "transport",
    "damage": 100,
    "max_damage": 0,
    "pv": 400,
    "max_pv": 0,
    "speed": 20,
    "rest_time": 2,
    "energy": 300,
    "max_energy": 0,
    "cost-gold": 100,
    "cost-population": 10,
    "cost-food": 50,
    "construction_time": 90,
    "icon": "ICON_transport.png",
    "level": 1,
    "size": 10,
    "type": {
      "milieu": "ground",
      "attack_ground": 1,
      "attack_sky": 0
    },
    "sprite": "SPRITE_marine-fr.png",
    "tag": "",
    "x": 0,
    "y": 0
  },
  "UNIT_anti_A": {
    "name": "anti_A",
    "damage": 500,
    "max_damage": 0,
    "pv": 1000,
    "max_pv": 0,
    "speed": 2,
    "rest_time": 0,
    "energy": 120,
    "max_energy": 0,
    "cost-gold": 500,
    "cost-population": 50,
    "cost-food": 200,
    "construction_time": 240,
    "icon": "ICON_anti-a.png",
    "level": 1,
    "size": 40,
    "type": {
      "milieu": "ground",
      "attack_ground": 0,
      "attack_sky": 1
    },
    "sprite": "SPRITE_missile-fr.png",
    "tag": "",
    "x": 0,
    "y": 0
  },
  "UNIT_chasseur": {
    "name": "chasseur",
    "damage": 100,
    "max_damage": 0,
    "pv": 200,
    "max_pv": 0,
    "speed": 100,
    "rest_time": 10,
    "energy": 500,
    "max_energy": 0,
    "cost-gold": 1000,
    "cost-population": 30,
    "cost-food": 200,
    "construction_time": 600,
    "icon": "ICON_chasseur.png",
    "level": 1,
    "size": 25,
    "type": {
      "milieu": "sky",
      "attack_ground": 0,
      "attack_sky": 1
    },
    "sprite": "SPRITE_air-fr.png",
    "tag": "",
    "x": 0,
    "y": 0
  },
  "UNIT_bombardier": {
    "name": "bombardier",
    "damage": 500,
    "max_damage": 0,
    "pv": 500,
    "max_pv": 0,
    "speed": 100,
    "rest_time": 12,
    "energy": 600,
    "max_energy": 0,
    "cost-gold": 5000,
    "cost-population": 50,
    "cost-food": 200,
    "construction_time": 660,
    "icon": "ICON_bombardier.png",
    "level": 1,
    "size": 50,
    "type": {
      "milieu": "sky",
      "attack_ground": 1,
      "attack_sky": 0
    },
    "sprite": "SPRITE_air-us.png",
    "tag": "",
    "x": 0,
    "y": 0
  },
  "UNIT_croiseur": {
    "name": "croiseur",
    "damage": 0,
    "max_damage": 0,
    "pv": 0,
    "speed": 0,
    "rest_time": 0,
    "energy": 0,
    "cost": 0,
    "construction_time": 0,
    "icon": "ICON_croiseur.png",
    "level": 0,
    "size": 0,
    "type": "ocean",
    "attack_ground": 1,
    "attack_sky": 1,
    "sprite": "SPRITE_marine-fr.png",
    "tag": ""
  },
  "UNIT_destroyer": {
    "name": "destroyer",
    "damage": 0,
    "max_damage": 0,
    "pv": 0,
    "speed": 0,
    "rest_time": 0,
    "energy": 0,
    "cost": 0,
    "construction_time": 0,
    "icon": "ICON_destroyer.png",
    "level": 0,
    "size": 0,
    "type": "ocean",
    "attack_ground": 1,
    "attack_sky": 1,
    "sprite": "SPRITE_marine-fr.png",
    "tag": ""
  },
  "UNIT_cuirasse": {
    "name": "cuirasse",
    "damage": 0,
    "max_damage": 0,
    "pv": 0,
    "speed": 0,
    "rest_time": 0,
    "energy": 0,
    "max_energy": 0,
    "cost": 0,
    "construction_time": 0,
    "icon": "ICON_cuirasse.png",
    "level": 0,
    "size": 0,
    "type": "ocean",
    "attack_ground": 1,
    "attack_sky": 1,
    "sprite": "SPRITE_marine-fr.png",
    "tag": ""
  }
}